{
    "KPlugin": {
        "Authors": [
            {
                "Name": "zayronxio"
            }
        ],
        "Name": "vector clock",
        "Id": "org.zayronxio.vector.clock",
        "Description": "Plasmoid showing current date",
        "Category": "Utilities",
        "Icon": "utilities-clock",
        "EnabledByDefault": true,
        "License": "GPL-3.0+",
        "ServiceTypes": [
            "Plasma/Applet"
        ],
        "Version": "0.1.4",
        "Website": ""
    },
    "X-Plasma-API": "declarativeappletscript",
    "X-Plasma-MainScript": "ui/main.qml"
}
