{
    "KPlugin": {
        "Authors": [
            {
                "Name": "zayronxio"
            }
        ],
        "Name": "Chaac Weather",
        "Id": "zayron.chaac.weather",
        "Description": "widget showing the current weather status",
        "Category": "Utilities",
        "Icon": "weather",
        "EnabledByDefault": true,
        "License": "GPL-3.0+",
        "ServiceTypes": [
            "Plasma/Applet"
        ],
        "Version": "0.7.7",
        "Website": "https://github.com/zayronxio/Chaac-weather"
    },
    "X-Plasma-API": "declarativeappletscript",
    "X-Plasma-MainScript": "ui/main.qml"
}
